ShiftReg4bit/rtl/shift_reg_4bit.vcd
$date
	Wed Dec 24 01:50:13 2025
$end
$version
	Icarus Verilog
$end
$timescale
	1ps
$end
$scope module shift_reg_4bit_tb $end
$var wire 4 ! q [3:0] $end
$var reg 1 " clk $end
$var reg 1 # din $end
$var reg 1 $ rst $end
$scope module uut $end
$var wire 1 % _04_ $end
$var wire 1 & _09_ $end
$var wire 1 ' _10_ $end
$var wire 1 ( _11_ $end
$var wire 1 ) _12_ $end
$var wire 1 * _13_ $end
$var wire 1 " clk $end
$var wire 1 # din $end
$var wire 1 $ rst $end
$var wire 4 + q [3:0] $end
$var wire 1 , _08_ $end
$var wire 1 - _07_ $end
$var wire 1 . _06_ $end
$var wire 1 / _05_ $end
$var wire 1 0 _03_ $end
$var wire 1 1 _02_ $end
$var wire 1 2 _01_ $end
$var wire 1 3 _00_ $end
$scope module _14_ $end
$var wire 1 . B $end
$var wire 1 2 Y $end
$var wire 1 / A $end
$upscope $end
$scope module _15_ $end
$var wire 1 - B $end
$var wire 1 1 Y $end
$var wire 1 / A $end
$upscope $end
$scope module _16_ $end
$var wire 1 , B $end
$var wire 1 0 Y $end
$var wire 1 / A $end
$upscope $end
$scope module _17_ $end
$var wire 1 & A $end
$var wire 1 / Y $end
$upscope $end
$scope module _18_ $end
$var wire 1 % A $end
$var wire 1 / B $end
$var wire 1 3 Y $end
$upscope $end
$scope module _19_ $end
$var wire 1 " CLK $end
$var wire 1 ' D $end
$var wire 1 4 DS0000 $end
$var wire 1 5 P0000 $end
$var wire 1 6 Q $end
$var reg 1 7 NOTIFIER $end
$upscope $end
$scope module _20_ $end
$var wire 1 " CLK $end
$var wire 1 ( D $end
$var wire 1 8 DS0000 $end
$var wire 1 9 P0000 $end
$var wire 1 : Q $end
$var reg 1 ; NOTIFIER $end
$upscope $end
$scope module _21_ $end
$var wire 1 " CLK $end
$var wire 1 ) D $end
$var wire 1 < DS0000 $end
$var wire 1 = P0000 $end
$var wire 1 > Q $end
$var reg 1 ? NOTIFIER $end
$upscope $end
$scope module _22_ $end
$var wire 1 " CLK $end
$var wire 1 * D $end
$var wire 1 @ DS0000 $end
$var wire 1 A P0000 $end
$var wire 1 B Q $end
$var reg 1 C NOTIFIER $end
$upscope $end
$upscope $end
$upscope $end
$enddefinitions $end
#0
$dumpvars
xC
xB
xA
x@
x?
x>
x=
x<
x;
x:
x9
x8
x7
x6
x5
x4
03
02
01
00
0/
x.
x-
x,
bx +
0*
0)
0(
0'
1&
0%
1$
0#
0"
bx !
$end
#5000
0.
0-
0,
15
06
19
0:
1=
0>
1A
b0 !
b0 +
0B
04
08
0<
0@
1"
#10000
0"
#15000
1"
#20000
1'
13
1/
0"
1%
1#
0&
0$
#25000
1(
12
1.
05
b1 !
b1 +
16
14
1"
#30000
0'
03
0"
0%
0#
#35000
0(
02
1)
11
0.
1-
15
06
09
b10 !
b10 +
1:
04
18
1"
#40000
1'
13
0"
1%
1#
#45000
1(
12
0)
01
1*
10
1.
0-
1,
05
16
19
0:
0=
b101 !
b101 +
1>
14
08
1<
1"
#50000
0"
#55000
1)
11
0*
00
1-
0,
09
1:
1=
0>
0A
b1011 !
b1011 +
1B
18
0<
1@
1"
#60000
0'
03
0"
0%
0#
#65000
0(
02
1*
10
0.
1,
15
06
0=
1>
1A
b110 !
b110 +
0B
04
1<
0@
1"
#70000
1'
13
0"
1%
1#
#75000
1(
12
0)
01
1.
0-
05
16
19
0:
0A
b1101 !
b1101 +
1B
14
08
1@
1"
#80000
0"
#85000
1)
11
0*
00
1-
0,
09
1:
1=
b1011 !
b1011 +
0>
18
0<
1"
#90000
0"
#95000
1*
10
1,
0=
1>
1A
b111 !
b111 +
0B
1<
0@
1"
#100000
0"
#105000
0A
b1111 !
b1111 +
1B
1@
1"
